<svg width="12" height="12" viewBox="0 0 12 12" fill="none" xmlns="http://www.w3.org/2000/svg">
<path d="M2.83735 2.05919C3.27921 2.05919 3.62793 1.75863 3.62793 1.37781C3.62793 0.876773 3.0698 0.155273 3.02338 0.0751777C2.93044 -0.0250592 2.74439 -0.0250592 2.65129 0.0751777C2.58154 0.155283 2.04674 0.876773 2.04674 1.37781C2.02338 1.73864 2.39548 2.05919 2.83732 2.05919H2.83735ZM2.83735 0.536064C3.00021 0.796649 3.18609 1.13735 3.18609 1.35781C3.18609 1.51816 3.02323 1.65838 2.83735 1.65838C2.6513 1.65838 2.48862 1.51802 2.48862 1.35781C2.48846 1.13734 2.6745 0.796642 2.83735 0.536064ZM6.02303 2.05919C6.46488 2.05919 6.8136 1.75863 6.8136 1.37781C6.8136 0.876773 6.25548 0.155273 6.20906 0.0751777C6.11611 -0.0250592 5.93006 -0.0250592 5.83696 0.0751777C5.76722 0.155283 5.23242 0.876773 5.23242 1.37781C5.23242 1.73864 5.58115 2.05919 6.02299 2.05919H6.02303ZM6.02303 0.536064C6.18588 0.796649 6.37176 1.13735 6.37176 1.35781C6.37176 1.51816 6.20891 1.65838 6.02303 1.65838C5.83698 1.65838 5.67429 1.51802 5.67429 1.35781C5.67429 1.13734 5.86018 0.796642 6.02303 0.536064ZM10.9993 5.2659H10.0226V2.58035C10.0226 2.48011 9.92967 2.37987 9.79002 2.37987H8.60413C8.48783 2.37987 8.37153 2.45998 8.37153 2.58035V5.24589H6.81355V2.58035C6.81355 2.48011 6.72061 2.37987 6.58095 2.37987H5.39507C5.27877 2.37987 5.16247 2.45998 5.16247 2.58035V5.24589H3.65121L3.65104 2.58035C3.65104 2.48011 3.5581 2.37987 3.41844 2.37987H2.23256C2.11626 2.37987 1.99996 2.45998 1.99996 2.58035V5.24589H1.02319C0.465069 5.24589 0 5.64669 0 6.12776V11.1181C0 11.5992 0.465027 12 1.02319 12H10.9757C11.5338 12 11.9988 11.5992 11.9988 11.1181L11.9992 6.12776C12.0224 5.64672 11.5573 5.2659 10.9992 5.2659H10.9993ZM8.83677 2.78069H9.58097V5.2659H8.83677V2.78069ZM5.65093 2.78069H6.39512V5.2659H5.65093V2.78069ZM2.46526 2.78069H3.20945V5.2659H2.46526V2.78069ZM11.5806 11.118C11.5806 11.3786 11.3248 11.5991 11.0225 11.5991H1.04676C0.744413 11.5991 0.488633 11.3786 0.488633 11.118V8.77315C0.744429 8.79314 1.00021 8.83326 1.23283 8.91351C1.48862 8.99362 1.7444 9.09385 2.00019 9.19409C2.53498 9.41455 3.06993 9.61503 3.65126 9.61503C3.72101 9.61503 3.81412 9.61503 3.88386 9.59504C4.58151 9.51494 5.13947 9.13412 5.67442 8.7733C6.20921 8.41262 6.69761 8.0518 7.30212 8.03179C7.74397 8.0118 8.16245 8.17215 8.62764 8.33236C8.69739 8.35235 8.7905 8.39247 8.86024 8.41246C9.74392 8.73316 10.6508 8.93351 11.5809 9.05387L11.5806 11.118ZM11.5806 8.67294C10.6969 8.55271 9.83659 8.37237 9.02264 8.07166C8.95289 8.05167 8.88314 8.01154 8.79004 7.99155C8.30163 7.81121 7.81339 7.63087 7.25527 7.65086C6.51108 7.69098 5.92974 8.09178 5.37178 8.4726C4.86021 8.83328 4.39514 9.15398 3.81381 9.21411C3.25568 9.27422 2.72089 9.05376 2.16273 8.83328C1.90693 8.73304 1.62794 8.61282 1.34878 8.53271C1.06979 8.45261 0.767442 8.39235 0.465106 8.37236L0.465431 6.12773C0.465431 5.86715 0.721226 5.6467 1.02355 5.6467H10.976C11.2784 5.6467 11.5341 5.86716 11.5341 6.12773L11.534 8.67292L11.5806 8.67294ZM9.2087 2.05919C9.65056 2.05919 9.99928 1.75863 9.99928 1.37781C9.99928 0.876773 9.44116 0.155273 9.39473 0.0751777C9.30179 -0.0250592 9.11574 -0.0250592 9.02264 0.0751777C8.95289 0.155283 8.41809 0.876773 8.41809 1.37781C8.41809 1.73864 8.76683 2.05919 9.20867 2.05919H9.2087ZM9.2087 0.536064C9.37156 0.796649 9.55744 1.13735 9.55744 1.35781C9.55744 1.51816 9.39459 1.65838 9.2087 1.65838C9.02266 1.65838 8.85997 1.51802 8.85997 1.35781C8.85997 1.13734 9.04602 0.796642 9.2087 0.536064Z" fill="#474A57"/>
</svg>
